The Data Lake: Schema on Read • virtuoso
…
vos_query(con, query) %>% 
as_tibble() %>% 
mutate(license = basename(license)) # Tidy up URIs into names
#> # A tibble: 43 x 3
#>    package   license      coauthor 
#>    <chr>     <chr>        <chr>    
#>  1 rfigshare CC0-1.0      Hart     
#>  2 RNeXML    BSD-3-Clause Lapp     
#>  3 RNeXML    BSD-3-Clause Vos      
#>  4 rfigshare CC0-1.0      Ram      
#>  5 RNeXML    BSD-3-Clause Boettiger
#>  6 arkdb     MIT          Boettiger
#>  7 codemetar GPL-3.0      Boettiger
#>  8 piggyback GPL-3.0      Boettiger
#>  9 rdflib    MIT          Boettiger
#> 10 rdryad    MIT          Boettiger
#> # ... with 33 more rows
…
